The Algorithm
…
str2xref("ads/besplatno-parikmaxer/,ads/nuzhen-rabotnik-s-pravami/,ads/sdam-komnatu-25/")

##                                A                              B
## 1      ads/besplatno-parikmaxer/ ads/nuzhen-rabotnik-s-pravami/
## 2      ads/besplatno-parikmaxer/           ads/sdam-komnatu-25/
## 3 ads/nuzhen-rabotnik-s-pravami/           ads/sdam-komnatu-25/

Do it for all strings:

do.call(
    rbind,
    lapply(tokens_with_multiple_links$links, str2xref)
) %>% count(A, B) %>% arrange(-n)

## Source: local data frame [33 x 3]
## Groups: A [11]
## 
##                                    A
##                                <chr>
## 1                  ads/dlya-braka-2/
## 2                  ads/dlya-braka-2/
## 3                  ads/dlya-braka-2/
## 4                  ads/dlya-braka-2/
## 5                  ads/dlya-braka-2/
## 6                  ads/dlya-braka-2/
## 7                  ads/dlya-braka-2/
## 8  ads/individualnyj-podbor-sputnic/
## 9  ads/individualnyj-podbor-sputnic/
## 10 ads/individualnyj-podbor-sputnic/
## # ... with 23 more rows, and 2 more variables: B <chr>, n <int>
